{
  "code": 200,
  "data": {
    "total": 13,
    "count": 10,
    "nextPageUrl": "/group/items/feat?langCode=en&ts=1492104146201&count=10&appLanguage=en&start=10&dpi=m",
    "rows": [
      {
        "id": "62216",
        "type": "TVVIDEO",
        "languageKey": "en",
        "categoryKey": "feat",
        "sourceInfo": {
          "sourceKey": "dailymotion",
          "sourcepageURl": "http://www.dailymotion.com/video/x58egan_pakistan-s-test-captain-mouth-breaking-reply-to-ian-chappel_tv",
          "sourceName": "DailyMotion"
        },
        "publishTime": 1484898000000,
        "createdTime": 1484898085000,
        "viewOrder": 0,
        "ingestionDate": 1490347250084,
        "viewcount": "449",
        "viewcountV2": "449",
        "like": {
          "count": "7",
          "countV2": "7",
          "emoji": [
            {
              "id": 1,
              "count": "3",
              "countV2": "3"
            },
            {
              "id": 2,
              "count": "1",
              "countV2": "1"
            },
            {
              "id": 3,
              "count": "3",
              "countV2": "3"
            },
            {
              "id": 4,
              "count": "0",
              "countV2": "0"
            },
            {
              "id": 5,
              "count": "0",
              "countV2": "0"
            },
            {
              "id": 6,
              "count": "0",
              "countV2": "0"
            }
          ]
        },
        "commentCount": "4",
        "commentCountV2": "4",
        "shareCount": "11",
        "shareCountV2": "11",
        "categoryName": "Featured",
        "title": "Subhaashita",
        "description":"ಹೇಮಲಂಬ ನಾಮ ಸಂವತ್ಸರ : ಉತ್ತರಾಯಣ ; ವಸಂತ ಋತು ; ಚೈತ್ರ ಮಾಸ ; ಕೃಷ್ಣ ಪಕ್ಷ ; ತೃತೀಯ, ಭಾರ್ಗವಾಸರ ; ವಿಶಾಖ ನಕ್ಷತ್ರ ; ಸಿದ್ಧಿ ಯೋಗ ; ಭದ್ರ ಕರಣ ; ಪುಣ್ಯದಿನ - ಶ್ರೀ ವಾಗೀಶ ತೀರ್ಥರು - ನವವೃಂದಾವನ",
        "shareUrl": "http://bz.dhunt.in/1Skzo",
        "languageTitle": "English",
        "viewBeaconUrl": "/item/view/62216",
        "commentBeaconUrl": "/user/comments/update/62216",
        "shareBeaconUrl": "/user/share/62216",
        "imageUrl": {
          "url": "http://dhtv1.dailyhunt.in/images/items/6/2/2/16/62216_{0}_{1}.jpg",
          "width": 480,
          "height": 268
        },
        "iconUrl": {
          "url": "http://dhtv1.dailyhunt.in/images/items/6/2/2/16/62216_{0}_{1}.jpg",
          "width": 480,
          "height": 268
        },
        "dataUrl": {
          "url": "http://dhtv1.dailyhunt.in/imageshttp://www.dailymotion.com/video/x58egan_pakistan-s-test-captain-mouth-breaking-reply-to-ian-chappel_tv",
          "width": 480,
          "height": 270
        },
        "reportBeaconUrl": "http://dhtv1.dailyhunt.in/buzz/report.jsp?cid=null&sid=62216",
        "fileType": "DAILYMOTION",
        "maxQuality": 360,
        "maxQualityIndex": 30,
        "commentUrl": "http://dhtv1.dailyhunt.in/buzz/video/english/featured/dailymotion-pakistan-s-test-captain-mouth-breaking-reply-to-ian-chappel-62216",
        "autoPlay": true,
        "durationLong": 46000,
        "categories": [
          {
            "name": "Featured",
            "key": "feat",
            "sourceUrl": ""
          }
        ],
        "fbFullBleed": true,
        "videoPlayedBeaconUrl": "/item/played/62216",
        "promoted": false,
        "ugc": false,
        "titleTrans": "DailyMotion: Pakistan's Test Captain Mouth Breaking Reply to Ian Chappel",
        "shareImageUrl": "http://dhtv1.dailyhunt.in/images/items/6/2/2/16/62216_{0}_{1}_share.jpg",
        "loopCount": 0,
        "channels": [],
        "duration": "00:46",
        "sourceVideoId": "x58egan",
        "relatedItemURL": "http://dhtv1.dailyhunt.in/tvapi/v2//item/related/62216"
      },
      {
        "id": "62218",
        "type": "TVIMAGE",
        "languageKey": "en",
        "categoryKey": "feat,emptytitle",
        "sourceInfo": {
          "sourceKey": "imagesource",
          "sourceName": "ImageSource"
        },
        "publishTime": 1484903580000,
        "createdTime": 1484904119000,
        "viewOrder": 0,
        "ingestionDate": 1492088543832,
        "viewcount": "254",
        "viewcountV2": "254",
        "like": {
          "count": "9",
          "countV2": "9",
          "emoji": [
            {
              "id": 1,
              "count": "6",
              "countV2": "6"
            },
            {
              "id": 2,
              "count": "0",
              "countV2": "0"
            },
            {
              "id": 3,
              "count": "2",
              "countV2": "2"
            },
            {
              "id": 4,
              "count": "1",
              "countV2": "1"
            },
            {
              "id": 5,
              "count": "0",
              "countV2": "0"
            },
            {
              "id": 6,
              "count": "0",
              "countV2": "0"
            }
          ]
        },
        "commentCount": "2",
        "commentCountV2": "2",
        "shareCount": "5",
        "shareCountV2": "5",
        "categoryName": "Featured,EmptyTitle",
        "title": "Ivattina Kantha paatha",
        "description":"prathamO hanumAn nAma dviteeyO bheema Eva cha |\npUrNaprajna tRuteeyastu bhagavat kAryasAdhakaH ||",
        "shareUrl": "http://bz.dhunt.in/1SlNT",
        "languageTitle": "English",
        "tags": [
          {
            "name": "giraffe_Giraffe",
            "nameUni": "Giraffe"
          }
        ],
        "viewBeaconUrl": "/item/view/62218",
        "commentBeaconUrl": "/user/comments/update/62218",
        "shareBeaconUrl": "/user/share/62218",
        "imageUrl": {
          "url": "http://dhtv1.dailyhunt.in/images/items/6/2/2/18/62218_{0}_{1}.jpg",
          "width": 477,
          "height": 318
        },
        "iconUrl": {
          "url": "http://dhtv1.dailyhunt.in/images/items/6/2/2/18/62218_{0}_{1}.jpg",
          "width": 477,
          "height": 318
        },
        "reportBeaconUrl": "http://dhtv1.dailyhunt.in/buzz/report.jsp?cid=null&sid=62218",
        "commentUrl": "http://dhtv1.dailyhunt.in/buzz/photo/english/featured/carousal-item-62218",
        "autoPlay": true,
        "durationLong": 0,
        "categories": [
          {
            "name": "Featured",
            "key": "feat",
            "sourceUrl": ""
          },
          {
            "name": "EmptyTitle",
            "key": "emptytitle",
            "sourceUrl": ""
          }
        ],
        "fbFullBleed": true,
        "promoted": false,
        "ugc": false,
        "titleTrans": "Carousal item",
        "shareImageUrl": "http://dhtv1.dailyhunt.in/images/items/6/2/2/18/62218_{0}_{1}_share.jpg",
        "loopCount": 0,
        "relatedItemURL": "http://dhtv1.dailyhunt.in/tvapi/v2//item/related/62218"
      },
      {
        "id": "1019",
        "type": "TVVIDEO",
        "languageKey": "en",
        "categoryKey": "feat",
        "sourceInfo": {
          "sourceKey": "youtube",
          "sourcepageURl": "https://www.youtube.com/watch?v=YPv9yKC76hE",
          "sourceName": "YouTube"
        },
        "publishTime": 1479991619000,
        "createdTime": 1479991384000,
        "viewOrder": 0,
        "ingestionDate": 1491370497894,
        "viewcount": "500",
        "viewcountV2": "500",
        "like": {
          "count": "5",
          "countV2": "5",
          "emoji": [
            {
              "id": 1,
              "count": "3",
              "countV2": "3"
            },
            {
              "id": 2,
              "count": "1",
              "countV2": "1"
            },
            {
              "id": 3,
              "count": "1",
              "countV2": "1"
            },
            {
              "id": 4,
              "count": "0",
              "countV2": "0"
            },
            {
              "id": 5,
              "count": "0",
              "countV2": "0"
            },
            {
              "id": 6,
              "count": "0",
              "countV2": "0"
            }
          ]
        },
        "commentCount": "0",
        "commentCountV2": "0",
        "shareCount": "11",
        "shareCountV2": "11",
        "categoryName": "Featured",
        "title": "Angara-Akshate",
        "description": "According to Madhva sampradaya Madhwas mark two vertical lines with Gopichandana representing Krishna's 'lotus feet'.[2] In between a vertical black line is made from the daily coal of the dhupa (incense).Madhwas generally worship only Avataras of Vishnu or Krishna daily. The coal left after offering incense is used to mark the black line. This is called as Angara. Those who are wearing this line have finished the Devara Puja (worship). Underneath the black line, red dot is added to indicate that one has finished eating their lunch.This dot is called as Akshate. It is the ash of the banana tree flower petal mixed with turmeric paste. The shape of Angara-Akshate is like that of a gada (mace). It is supposed to be Pranadeva Sannidhi (have the presence of Vayu Devaru). Those who did not perform daily worship to Narayana wear the simple two line tilak only.",
        "shareUrl": "http://bz.dhunt.in/1GI8z",
        "languageTitle": "English",
        "viewBeaconUrl": "/item/view/1019",
        "commentBeaconUrl": "/user/comments/update/1019",
        "shareBeaconUrl": "/user/share/1019",
        "imageUrl": {
          "url": "http://dhtv1.dailyhunt.in/images/items/1/0/19/1019_{0}_{1}.jpg",
          "width": 480,
          "height": 300
        },
        "iconUrl": {
          "url": "http://dhtv1.dailyhunt.in/images/items/1/0/19/1019_{0}_{1}.jpg",
          "width": 480,
          "height": 300
        },
        "dataUrl": {
          "url": "https://www.youtube.com/watch?v=YPv9yKC76hE",
          "width": 0,
          "height": 0
        },
        "reportBeaconUrl": "http://dhtv1.dailyhunt.in/buzz/report.jsp?cid=null&sid=1019",
        "fileType": "YOUTUBE",
        "commentUrl": "http://dhtv1.dailyhunt.in/buzz/video/english/animals/kitten-academy-live-stream-1019",
        "autoPlay": true,
        "durationLong": 0,
        "categories": [
          {
            "name": "Featured",
            "key": "feat",
            "sourceUrl": ""
          }
        ],
        "fbFullBleed": true,
        "videoPlayedBeaconUrl": "/item/played/1019",
        "promoted": false,
        "ugc": false,
        "titleTrans": "Kitten Academy Live Stream",
        "shareImageUrl": "http://dhtv1.dailyhunt.in/images/items/1/0/19/1019_{0}_{1}_share.jpg",
        "loopCount": 0,
        "channels": [],
        "duration": "00:00",
        "sourceVideoId": "YPv9yKC76hE",
        "relatedItemURL": "http://dhtv1.dailyhunt.in/tvapi/v2//item/related/1019"
      },
      {
        "id": "62221",
        "type": "TVVIDEO",
        "languageKey": "en",
        "categoryKey": "feat",
        "sourceInfo": {
          "sourceKey": "mp4source",
          "sourcepageURl": "NA",
          "sourceName": "MP4Source"
        },
        "publishTime": 1484300820000,
        "createdTime": 1484905658000,
        "viewOrder": 0,
        "ingestionDate": 1491306793288,
        "viewcount": "189",
        "viewcountV2": "189",
        "like": {
          "count": "6",
          "countV2": "6",
          "emoji": [
            {
              "id": 1,
              "count": "3",
              "countV2": "3"
            },
            {
              "id": 2,
              "count": "0",
              "countV2": "0"
            },
            {
              "id": 3,
              "count": "1",
              "countV2": "1"
            },
            {
              "id": 4,
              "count": "2",
              "countV2": "2"
            },
            {
              "id": 5,
              "count": "0",
              "countV2": "0"
            },
            {
              "id": 6,
              "count": "0",
              "countV2": "0"
            }
          ]
        },
        "commentCount": "1",
        "commentCountV2": "1",
        "shareCount": "3",
        "shareCountV2": "3",
        "categoryName": "Featured",
        "title": "Carousal_test",
        "shareUrl": "http://bz.dhunt.in/1Sm9r",
        "languageTitle": "English",
        "viewBeaconUrl": "/item/view/62221",
        "commentBeaconUrl": "/user/comments/update/62221",
        "shareBeaconUrl": "/user/share/62221",
        "imageUrl": {
          "url": "http://dhtv1.dailyhunt.in/images/items/6/2/2/21/62221_{0}_{1}.jpg",
          "width": 292,
          "height": 240
        },
        "iconUrl": {
          "url": "http://dhtv1.dailyhunt.in/images/items/6/2/2/21/62221_{0}_{1}.jpg",
          "width": 292,
          "height": 240
        },
        "dataUrl": {
          "url": "http://dhtv1.dailyhunt.in/images/items/6/2/2/21/62221_{1}.mp4",
          "width": 292,
          "height": 240
        },
        "reportBeaconUrl": "http://dhtv1.dailyhunt.in/buzz/report.jsp?cid=null&sid=62221",
        "fileType": "MP4",
        "maxQuality": 240,
        "maxQualityIndex": 20,
        "commentUrl": "http://dhtv1.dailyhunt.in/buzz/video/english/featured/carousal_test-62221",
        "autoPlay": true,
        "durationLong": 0,
        "categories": [
          {
            "name": "Featured",
            "key": "feat",
            "sourceUrl": ""
          }
        ],
        "fbFullBleed": true,
        "videoPlayedBeaconUrl": "/item/played/62221",
        "promoted": false,
        "ugc": false,
        "titleTrans": "Carousal_test",
        "shareImageUrl": "http://dhtv1.dailyhunt.in/images/items/6/2/2/21/62221_{0}_{1}_share.jpg",
        "loopCount": 0,
        "channels": [],
        "duration": "",
        "relatedItemURL": "http://dhtv1.dailyhunt.in/tvapi/v2//item/related/62221"
      },
      {
        "id": "1016",
        "type": "TVVIDEO",
        "languageKey": "en",
        "categoryKey": "feat",
        "sourceInfo": {
          "sourceKey": "youtube",
          "sourcepageURl": "https://www.youtube.com/watch?v=KhOxzg1cGCY",
          "sourceName": "YouTube"
        },
        "publishTime": 1479968869000,
        "createdTime": 1479989070000,
        "viewOrder": 0,
        "ingestionDate": 1491305473249,
        "viewcount": "394",
        "viewcountV2": "394",
        "like": {
          "count": "2",
          "countV2": "2",
          "emoji": [
            {
              "id": 1,
              "count": "0",
              "countV2": "0"
            },
            {
              "id": 2,
              "count": "1",
              "countV2": "1"
            },
            {
              "id": 3,
              "count": "0",
              "countV2": "0"
            },
            {
              "id": 4,
              "count": "1",
              "countV2": "1"
            },
            {
              "id": 5,
              "count": "0",
              "countV2": "0"
            },
            {
              "id": 6,
              "count": "0",
              "countV2": "0"
            }
          ]
        },
        "commentCount": "1",
        "commentCountV2": "1",
        "shareCount": "15",
        "shareCountV2": "15",
        "categoryName": "Featured",
        "title": "Dailyhunt",
        "shareUrl": "http://bz.dhunt.in/1GHXZ",
        "languageTitle": "English",
        "viewBeaconUrl": "/item/view/1016",
        "commentBeaconUrl": "/user/comments/update/1016",
        "shareBeaconUrl": "/user/share/1016",
        "imageUrl": {
          "url": "http://dhtv1.dailyhunt.in/images/items/1/0/16/1016_{0}_{1}.jpg",
          "width": 480,
          "height": 270
        },
        "iconUrl": {
          "url": "http://dhtv1.dailyhunt.in/images/items/1/0/16/1016_{0}_{1}.jpg",
          "width": 480,
          "height": 270
        },
        "dataUrl": {
          "url": "https://www.youtube.com/watch?v=KhOxzg1cGCY",
          "width": 0,
          "height": 0
        },
        "reportBeaconUrl": "http://dhtv1.dailyhunt.in/buzz/report.jsp?cid=null&sid=1016",
        "fileType": "YOUTUBE",
        "commentUrl": "http://dhtv1.dailyhunt.in/buzz/video/english/featured/dailyhunt-1016",
        "autoPlay": true,
        "durationLong": 0,
        "categories": [
          {
            "name": "Featured",
            "key": "feat",
            "sourceUrl": ""
          }
        ],
        "fbFullBleed": true,
        "videoPlayedBeaconUrl": "/item/played/1016",
        "promoted": false,
        "ugc": false,
        "titleTrans": "Dailyhunt",
        "shareImageUrl": "http://dhtv1.dailyhunt.in/images/items/1/0/16/1016_{0}_{1}_share.jpg",
        "loopCount": 0,
        "channels": [],
        "duration": "00:00",
        "sourceVideoId": "KhOxzg1cGCY",
        "relatedItemURL": "http://dhtv1.dailyhunt.in/tvapi/v2//item/related/1016"
      },
      {
        "id": "62215",
        "type": "TVVIDEO",
        "languageKey": "en",
        "categoryKey": "feat",
        "sourceInfo": {
          "sourceKey": "dailymotion",
          "sourcepageURl": "http://www.dailymotion.com/video/x58d47o_english-channels-news-anchors-not-happy-with-each-other-for-wearing-same-color-dress_news",
          "sourceName": "DailyMotion"
        },
        "publishTime": 1484897880000,
        "createdTime": 1484898041000,
        "viewOrder": 0,
        "ingestionDate": 1491369420429,
        "viewcount": "651",
        "viewcountV2": "651",
        "like": {
          "count": "9",
          "countV2": "9",
          "emoji": [
            {
              "id": 1,
              "count": "4",
              "countV2": "4"
            },
            {
              "id": 2,
              "count": "2",
              "countV2": "2"
            },
            {
              "id": 3,
              "count": "1",
              "countV2": "1"
            },
            {
              "id": 4,
              "count": "1",
              "countV2": "1"
            },
            {
              "id": 5,
              "count": "1",
              "countV2": "1"
            },
            {
              "id": 6,
              "count": "0",
              "countV2": "0"
            }
          ]
        },
        "commentCount": "6",
        "commentCountV2": "6",
        "shareCount": "20",
        "shareCountV2": "20",
        "categoryName": "Featured",
        "title": "DailyMotion : English Channels News Anchors ",
        "shareUrl": "http://bz.dhunt.in/1Skyo",
        "languageTitle": "English",
        "viewBeaconUrl": "/item/view/62215",
        "commentBeaconUrl": "/user/comments/update/62215",
        "shareBeaconUrl": "/user/share/62215",
        "imageUrl": {
          "url": "http://dhtv1.dailyhunt.in/images/items/6/2/2/15/62215_{0}_{1}.jpg",
          "width": 480,
          "height": 268
        },
        "iconUrl": {
          "url": "http://dhtv1.dailyhunt.in/images/items/6/2/2/15/62215_{0}_{1}.jpg",
          "width": 480,
          "height": 268
        },
        "dataUrl": {
          "url": "http://dhtv1.dailyhunt.in/imageshttp://www.dailymotion.com/video/x58d47o_english-channels-news-anchors-not-happy-with-each-other-for-wearing-same-color-dress_news",
          "width": 480,
          "height": 270
        },
        "reportBeaconUrl": "http://dhtv1.dailyhunt.in/buzz/report.jsp?cid=null&sid=62215",
        "fileType": "DAILYMOTION",
        "maxQuality": 360,
        "maxQualityIndex": 30,
        "commentUrl": "http://dhtv1.dailyhunt.in/buzz/video/english/featured/dailymotion-english-channels-news-anchors-62215",
        "autoPlay": true,
        "durationLong": 127000,
        "categories": [
          {
            "name": "Featured",
            "key": "feat",
            "sourceUrl": ""
          }
        ],
        "fbFullBleed": true,
        "videoPlayedBeaconUrl": "/item/played/62215",
        "promoted": false,
        "ugc": false,
        "titleTrans": "DailyMotion : English Channels News Anchors",
        "shareImageUrl": "http://dhtv1.dailyhunt.in/images/items/6/2/2/15/62215_{0}_{1}_share.jpg",
        "loopCount": 0,
        "channels": [],
        "duration": "02:07",
        "sourceVideoId": "x58d47o",
        "relatedItemURL": "http://dhtv1.dailyhunt.in/tvapi/v2//item/related/62215"
      },
      {
        "id": "72114",
        "type": "TVVIDEO",
        "languageKey": "en",
        "categoryKey": "feat",
        "sourceInfo": {
          "sourceKey": "youtube",
          "sourcepageURl": "https://www.youtube.com/watch?v=uUTDZAUN43g",
          "sourceName": "YouTube"
        },
        "publishTime": 1485350475000,
        "createdTime": 1485350489000,
        "viewOrder": 0,
        "ingestionDate": 1492088661062,
        "viewcount": "180",
        "viewcountV2": "180",
        "like": {
          "count": "4",
          "countV2": "4",
          "emoji": [
            {
              "id": 1,
              "count": "2",
              "countV2": "2"
            },
            {
              "id": 2,
              "count": "1",
              "countV2": "1"
            },
            {
              "id": 3,
              "count": "0",
              "countV2": "0"
            },
            {
              "id": 4,
              "count": "1",
              "countV2": "1"
            },
            {
              "id": 5,
              "count": "0",
              "countV2": "0"
            },
            {
              "id": 6,
              "count": "0",
              "countV2": "0"
            }
          ]
        },
        "commentCount": "2",
        "commentCountV2": "2",
        "shareCount": "8",
        "shareCountV2": "8",
        "categoryName": "Featured",
        "title": "BhootaRaajaru",
        "description":"Sri Bhootarajaru is referred as Vadirajadoota, who carried the idols and swamiji in a panquin invisible to others. He was indeed a great scholar from Kashi, who was arrogant. In fact he had interfered with a friendly conversation between vyasarajaru and vadirajaru, which made vadirajaru to curse him to be a brahma rakshasa.Later Vadirajaru selected Sonda as his placef for penance and used bhootaraja to perform difficult tasks like bringing Trivikrama temple from Badarinath.",
        "shareUrl": "http://bz.dhunt.in/1TvpI",
        "languageTitle": "English",
        "viewBeaconUrl": "/item/view/72114",
        "commentBeaconUrl": "/user/comments/update/72114",
        "shareBeaconUrl": "/user/share/72114",
        "imageUrl": {
          "url": "http://dhtv1.dailyhunt.in/images/items/7/2/1/14/72114_{0}_{1}.jpg",
          "width": 480,
          "height": 270
        },
        "iconUrl": {
          "url": "http://dhtv1.dailyhunt.in/images/items/7/2/1/14/72114_{0}_{1}.jpg",
          "width": 480,
          "height": 270
        },
        "dataUrl": {
          "url": "https://www.youtube.com/watch?v=uUTDZAUN43g",
          "width": 0,
          "height": 0
        },
        "reportBeaconUrl": "http://dhtv1.dailyhunt.in/buzz/report.jsp?cid=null&sid=72114",
        "fileType": "YOUTUBE",
        "commentUrl": "http://dhtv1.dailyhunt.in/buzz/video/english/featured/address-to-the-nation-by-president-on-the-eve-of-68th-republic-day-72114",
        "autoPlay": true,
        "durationLong": 0,
        "categories": [
          {
            "name": "Featured",
            "key": "feat",
            "sourceUrl": ""
          }
        ],
        "fbFullBleed": true,
        "videoPlayedBeaconUrl": "/item/played/72114",
        "promoted": false,
        "ugc": false,
        "titleTrans": "Address to the Nation by President on the eve of 68th Republic Day",
        "shareImageUrl": "http://dhtv1.dailyhunt.in/images/items/7/2/1/14/72114_{0}_{1}_share.jpg",
        "loopCount": 0,
        "channels": [],
        "duration": "00:00",
        "sourceVideoId": "uUTDZAUN43g",
        "relatedItemURL": "http://dhtv1.dailyhunt.in/tvapi/v2//item/related/72114"
      },
      {
        "id": "99553",
        "type": "TVIMAGE",
        "languageKey": "en",
        "categoryKey": "bollywood,feat,promoted,emptytitle",
        "sourceInfo": {
          "sourceKey": "imagesource",
          "sourceName": "ImageSource"
        },
        "publishTime": 1486459800000,
        "createdTime": 1486459930000,
        "viewOrder": 0,
        "ingestionDate": 1492088548225,
        "viewcount": "125",
        "viewcountV2": "125",
        "like": {
          "count": "1",
          "countV2": "1",
          "emoji": [
            {
              "id": 1,
              "count": "0",
              "countV2": "0"
            },
            {
              "id": 2,
              "count": "1",
              "countV2": "1"
            },
            {
              "id": 3,
              "count": "0",
              "countV2": "0"
            },
            {
              "id": 4,
              "count": "0",
              "countV2": "0"
            },
            {
              "id": 5,
              "count": "0",
              "countV2": "0"
            },
            {
              "id": 6,
              "count": "0",
              "countV2": "0"
            }
          ]
        },
        "commentCount": "0",
        "commentCountV2": "0",
        "shareCount": "4",
        "shareCountV2": "4",
        "categoryName": "Bollywood,Featured,promoted,EmptyTitle",
        "title": "Bollywood Image",
        "shareUrl": "http://bz.dhunt.in/1WiQb",
        "languageTitle": "English",
        "viewBeaconUrl": "/item/view/99553",
        "commentBeaconUrl": "/user/comments/update/99553",
        "shareBeaconUrl": "/user/share/99553",
        "imageUrl": {
          "url": "http://dhtv1.dailyhunt.in/images/items/9/9/5/53/99553_{0}_{1}.jpg",
          "width": 226,
          "height": 128
        },
        "iconUrl": {
          "url": "http://dhtv1.dailyhunt.in/images/items/9/9/5/53/99553_{0}_{1}.jpg",
          "width": 226,
          "height": 128
        },
        "reportBeaconUrl": "http://dhtv1.dailyhunt.in/buzz/report.jsp?cid=null&sid=99553",
        "commentUrl": "http://web.dailyhunt.in/buzz/photo/english/bollywood/bollywood-image-99553",
        "autoPlay": true,
        "durationLong": 0,
        "categories": [
          {
            "name": "Bollywood",
            "key": "bollywood",
            "sourceUrl": ""
          },
          {
            "name": "Featured",
            "key": "feat",
            "sourceUrl": ""
          },
          {
            "name": "promoted",
            "key": "promoted",
            "sourceUrl": ""
          },
          {
            "name": "EmptyTitle",
            "key": "emptytitle",
            "sourceUrl": ""
          }
        ],
        "fbFullBleed": true,
        "promoted": true,
        "ugc": false,
        "titleTrans": "Bollywood Image",
        "shareImageUrl": "http://dhtv1.dailyhunt.in/images/items/9/9/5/53/99553_{0}_{1}_share.jpg",
        "loopCount": 0,
        "relatedItemURL": "http://dhtv1.dailyhunt.in/tvapi/v2//item/related/99553"
      }
    ],
    "ts": 1492104146201,
    "pageNumber": 1
  }
}